ID,Longitude,Latitude,Date,Depth_meters,Investigator,Description
1,-38.4412,72.5749,14-Jul-11,1.5,Jane Doe,Snow pit
2,-38.4287,72.5865,17-Jul-11,0.8,Jane Doe,Snow pit and sampling for black carbon
3,-38.4806,72.6076,20-Jul-11,1.2,Johann Schmidt,Snow pit
